%YAML 1.1
%TAG !u! tag:unity3d.com,2011:
--- !u!114 &11400000
MonoBehaviour:
  m_ObjectHideFlags: 0
  m_CorrespondingSourceObject: {fileID: 0}
  m_PrefabInstance: {fileID: 0}
  m_PrefabAsset: {fileID: 0}
  m_GameObject: {fileID: 0}
  m_Enabled: 1
  m_EditorHideFlags: 0
  m_Script: {fileID: 11500000, guid: a94407c414064c540b7e136965780d74, type: 3}
  m_Name: Head Horn
  m_EditorClassIdentifier: 
  equipmentSlot: 0
  itemId: 40
  isShowOnStore: 0
  thumbnail: {fileID: 21300000, guid: 402a75d55694e2042ad1a4ddb2fc6e14, type: 3}
  price: 500
  prefab: {fileID: 5854846368544305420, guid: dbeb73aa7a7e47a4b8f439cb9e1d8f83, type: 3}
