%YAML 1.1
%TAG !u! tag:unity3d.com,2011:
--- !u!114 &11400000
MonoBehaviour:
  m_ObjectHideFlags: 0
  m_CorrespondingSourceObject: {fileID: 0}
  m_PrefabInstance: {fileID: 0}
  m_PrefabAsset: {fileID: 0}
  m_GameObject: {fileID: 0}
  m_Enabled: 1
  m_EditorHideFlags: 0
  m_Script: {fileID: 11500000, guid: 0009ff348f502fc4787673668b2578b0, type: 3}
  m_Name: Item all
  m_EditorClassIdentifier: 
  items:
  - {fileID: 11400000, guid: 1d5d8a14647ad0e489f89ea3fa9ba385, type: 2}
  - {fileID: 11400000, guid: dd8a74d221e52644a902a1081a23bea3, type: 2}
  - {fileID: 11400000, guid: 1427941d37f98864e853559806520c61, type: 2}
  - {fileID: 11400000, guid: 4ebd189b3969fe842a7cbec5570924bb, type: 2}
  - {fileID: 11400000, guid: 16fbdb40114839449a3be2ecf5e76e8b, type: 2}
  - {fileID: 11400000, guid: a3379fbf5a89bc14f868c8797b347b21, type: 2}
  - {fileID: 11400000, guid: c913f1fc0e7bf7045851dd503ccf2df7, type: 2}
  - {fileID: 11400000, guid: 731a7b3fbe753c44f9bb924374edbcba, type: 2}
  - {fileID: 11400000, guid: ca82033fe041dd94bb89fe523bdf5def, type: 2}
  - {fileID: 11400000, guid: 274e0dc901afaa341837cb4604614646, type: 2}
  - {fileID: 11400000, guid: 8b709a2f9d377b24c983dcf80ff79191, type: 2}
  - {fileID: 11400000, guid: f7219845eb3f7214aae3a88340b9cdf6, type: 2}
  - {fileID: 11400000, guid: ad1a371908da6a24292370d9c5ac4ccd, type: 2}
  - {fileID: 11400000, guid: 3f067e92930761e489424dd85eb58b66, type: 2}
  - {fileID: 11400000, guid: 0ebc50c7a99bad34791a6101e4c2a07a, type: 2}
  - {fileID: 11400000, guid: 2b4bf0609afa1ec429b2948038b69748, type: 2}
  - {fileID: 11400000, guid: 9e86b80ce8ec0a843b12cfdf424041c9, type: 2}
  - {fileID: 11400000, guid: e4e8c3fcd339f27429c5b53ba2877f23, type: 2}
  - {fileID: 11400000, guid: ab23f7875832e694084b1de05af7f156, type: 2}
  - {fileID: 11400000, guid: 291981b0d535da044a4bbb6c8562b498, type: 2}
  - {fileID: 11400000, guid: 37e0eb5cb50a82e43b186f256317b49f, type: 2}
  - {fileID: 11400000, guid: 74281954fe26bee468eff406280cef58, type: 2}
  - {fileID: 11400000, guid: 3bf4e4dc26152eb4480cc71425839cf3, type: 2}
  - {fileID: 11400000, guid: 7c9a8648a142e6d4db9521d4fd12a4ce, type: 2}
  - {fileID: 11400000, guid: 63a0d4794df92144da95fc54c9f9dd00, type: 2}
  - {fileID: 11400000, guid: 38f2009071f57d040beeb1041be0ff7e, type: 2}
  - {fileID: 11400000, guid: 1bddca97d75bb194b87be878b53a4ea5, type: 2}
  - {fileID: 11400000, guid: a4dd7e6cad7e32d47b0d5be06dd1c4bd, type: 2}
  - {fileID: 11400000, guid: 0c14178230115b249b43d6e6bcdfde63, type: 2}
  - {fileID: 11400000, guid: 4d92c420a697e664491cb580ab0bc389, type: 2}
  - {fileID: 11400000, guid: a6a77d182da89e44593f93a5a9628689, type: 2}
  - {fileID: 11400000, guid: 416d9564baa848049943a5670e0bc6e4, type: 2}
  - {fileID: 11400000, guid: a0f432ca2215646479e011a3b2287214, type: 2}
  - {fileID: 11400000, guid: 068a8cb36dad5094dab1eb05ca59227e, type: 2}
  - {fileID: 11400000, guid: 13de95ebe3a667b48ac0f26b74e714d4, type: 2}
  - {fileID: 11400000, guid: 235bbf26e506cb44599a456114b6ea0c, type: 2}
  - {fileID: 11400000, guid: e9d994268b8cee24298eb86b1b324a8a, type: 2}
  - {fileID: 11400000, guid: d91e6512ccbb8a2459fad870b2f65607, type: 2}
  - {fileID: 11400000, guid: 26c823cea6debbb4e9a2911060195a1f, type: 2}
  - {fileID: 11400000, guid: 6c745dd4da772b541a4cbe28951e3c05, type: 2}
  - {fileID: 11400000, guid: e827202d7a45a1f439b0321b682a3c0a, type: 2}
  - {fileID: 11400000, guid: be1250fac8a538147a4641969902dea1, type: 2}
  - {fileID: 11400000, guid: 63a68304c6883964789def8bb78f1fbd, type: 2}
  - {fileID: 11400000, guid: a461a7a3bb8e893418b778d53e5d194d, type: 2}
  - {fileID: 11400000, guid: 8c8bee5af85ded948a0b72ee1b461a70, type: 2}
