%YAML 1.1
%TAG !u! tag:unity3d.com,2011:
--- !u!114 &11400000
MonoBehaviour:
  m_ObjectHideFlags: 0
  m_CorrespondingSourceObject: {fileID: 0}
  m_PrefabInstance: {fileID: 0}
  m_PrefabAsset: {fileID: 0}
  m_GameObject: {fileID: 0}
  m_Enabled: 1
  m_EditorHideFlags: 0
  m_Script: {fileID: 11500000, guid: cb0dcb4841e45f2498b789d1a1b9962d, type: 3}
  m_Name: Skin Thor
  m_EditorClassIdentifier: 
  equipmentSlot: 0
  itemId: 0
  isShowOnStore: 1
  thumbnail: {fileID: 0}
  price: 0
  itemsOfSkin: []
