%YAML 1.1
%TAG !u! tag:unity3d.com,2011:
--- !u!1 &453224890646679948
GameObject:
  m_ObjectHideFlags: 0
  m_CorrespondingSourceObject: {fileID: 0}
  m_PrefabInstance: {fileID: 0}
  m_PrefabAsset: {fileID: 0}
  serializedVersion: 6
  m_Component:
  - component: {fileID: 2212050290888221071}
  - component: {fileID: 5963104211329734730}
  - component: {fileID: 4218708406673489782}
  - component: {fileID: 7907544990324267056}
  - component: {fileID: 7509294926987008575}
  m_Layer: 3
  m_Name: Collider
  m_TagString: Player
  m_Icon: {fileID: 0}
  m_NavMeshLayer: 0
  m_StaticEditorFlags: 0
  m_IsActive: 1
--- !u!4 &2212050290888221071
Transform:
  m_ObjectHideFlags: 0
  m_CorrespondingSourceObject: {fileID: 0}
  m_PrefabInstance: {fileID: 0}
  m_PrefabAsset: {fileID: 0}
  m_GameObject: {fileID: 453224890646679948}
  m_LocalRotation: {x: 0, y: 0, z: 0, w: 1}
  m_LocalPosition: {x: 0, y: 0, z: 0}
  m_LocalScale: {x: 1, y: 1, z: 1}
  m_Children: []
  m_Father: {fileID: 6136475394438716181}
  m_RootOrder: 2
  m_LocalEulerAnglesHint: {x: 0, y: 0, z: 0}
--- !u!33 &5963104211329734730
MeshFilter:
  m_ObjectHideFlags: 0
  m_CorrespondingSourceObject: {fileID: 0}
  m_PrefabInstance: {fileID: 0}
  m_PrefabAsset: {fileID: 0}
  m_GameObject: {fileID: 453224890646679948}
  m_Mesh: {fileID: 10208, guid: 0000000000000000e000000000000000, type: 0}
--- !u!23 &4218708406673489782
MeshRenderer:
  m_ObjectHideFlags: 0
  m_CorrespondingSourceObject: {fileID: 0}
  m_PrefabInstance: {fileID: 0}
  m_PrefabAsset: {fileID: 0}
  m_GameObject: {fileID: 453224890646679948}
  m_Enabled: 0
  m_CastShadows: 1
  m_ReceiveShadows: 1
  m_DynamicOccludee: 1
  m_MotionVectors: 1
  m_LightProbeUsage: 1
  m_ReflectionProbeUsage: 1
  m_RayTracingMode: 2
  m_RayTraceProcedural: 0
  m_RenderingLayerMask: 1
  m_RendererPriority: 0
  m_Materials:
  - {fileID: 10303, guid: 0000000000000000f000000000000000, type: 0}
  m_StaticBatchInfo:
    firstSubMesh: 0
    subMeshCount: 0
  m_StaticBatchRoot: {fileID: 0}
  m_ProbeAnchor: {fileID: 0}
  m_LightProbeVolumeOverride: {fileID: 0}
  m_ScaleInLightmap: 1
  m_ReceiveGI: 1
  m_PreserveUVs: 0
  m_IgnoreNormalsForChartDetection: 0
  m_ImportantGI: 0
  m_StitchLightmapSeams: 1
  m_SelectedEditorRenderState: 3
  m_MinimumChartSize: 4
  m_AutoUVMaxDistance: 0.5
  m_AutoUVMaxAngle: 89
  m_LightmapParameters: {fileID: 0}
  m_SortingLayerID: 0
  m_SortingLayer: 0
  m_SortingOrder: 0
  m_AdditionalVertexStreams: {fileID: 0}
--- !u!136 &7907544990324267056
CapsuleCollider:
  m_ObjectHideFlags: 0
  m_CorrespondingSourceObject: {fileID: 0}
  m_PrefabInstance: {fileID: 0}
  m_PrefabAsset: {fileID: 0}
  m_GameObject: {fileID: 453224890646679948}
  m_Material: {fileID: 0}
  m_IsTrigger: 0
  m_Enabled: 1
  m_Radius: 0.5
  m_Height: 2
  m_Direction: 1
  m_Center: {x: 0, y: 0, z: 0}
--- !u!114 &7509294926987008575
MonoBehaviour:
  m_ObjectHideFlags: 0
  m_CorrespondingSourceObject: {fileID: 0}
  m_PrefabInstance: {fileID: 0}
  m_PrefabAsset: {fileID: 0}
  m_GameObject: {fileID: 453224890646679948}
  m_Enabled: 1
  m_EditorHideFlags: 0
  m_Script: {fileID: 11500000, guid: f58992b35217e8347a4b7b9ce284625c, type: 3}
  m_Name: 
  m_EditorClassIdentifier: 
  character: {fileID: 6136475394438716190}
--- !u!1 &6136475393729493018
GameObject:
  m_ObjectHideFlags: 0
  m_CorrespondingSourceObject: {fileID: 0}
  m_PrefabInstance: {fileID: 0}
  m_PrefabAsset: {fileID: 0}
  serializedVersion: 6
  m_Component:
  - component: {fileID: 6136475393729493019}
  - component: {fileID: 6136475393729493016}
  - component: {fileID: 6136475393729493022}
  m_Layer: 0
  m_Name: Attack Range
  m_TagString: Untagged
  m_Icon: {fileID: 0}
  m_NavMeshLayer: 0
  m_StaticEditorFlags: 0
  m_IsActive: 1
--- !u!4 &6136475393729493019
Transform:
  m_ObjectHideFlags: 0
  m_CorrespondingSourceObject: {fileID: 0}
  m_PrefabInstance: {fileID: 0}
  m_PrefabAsset: {fileID: 0}
  m_GameObject: {fileID: 6136475393729493018}
  m_LocalRotation: {x: 0.7071068, y: 0, z: 0, w: 0.7071068}
  m_LocalPosition: {x: 0, y: -0.9, z: 0}
  m_LocalScale: {x: 3, y: 3, z: 3}
  m_Children: []
  m_Father: {fileID: 6136475394438716181}
  m_RootOrder: 1
  m_LocalEulerAnglesHint: {x: 90, y: 0, z: 0}
--- !u!212 &6136475393729493016
SpriteRenderer:
  m_ObjectHideFlags: 0
  m_CorrespondingSourceObject: {fileID: 0}
  m_PrefabInstance: {fileID: 0}
  m_PrefabAsset: {fileID: 0}
  m_GameObject: {fileID: 6136475393729493018}
  m_Enabled: 1
  m_CastShadows: 0
  m_ReceiveShadows: 0
  m_DynamicOccludee: 1
  m_MotionVectors: 1
  m_LightProbeUsage: 1
  m_ReflectionProbeUsage: 1
  m_RayTracingMode: 0
  m_RayTraceProcedural: 0
  m_RenderingLayerMask: 1
  m_RendererPriority: 0
  m_Materials:
  - {fileID: 10754, guid: 0000000000000000f000000000000000, type: 0}
  m_StaticBatchInfo:
    firstSubMesh: 0
    subMeshCount: 0
  m_StaticBatchRoot: {fileID: 0}
  m_ProbeAnchor: {fileID: 0}
  m_LightProbeVolumeOverride: {fileID: 0}
  m_ScaleInLightmap: 1
  m_ReceiveGI: 1
  m_PreserveUVs: 0
  m_IgnoreNormalsForChartDetection: 0
  m_ImportantGI: 0
  m_StitchLightmapSeams: 1
  m_SelectedEditorRenderState: 0
  m_MinimumChartSize: 4
  m_AutoUVMaxDistance: 0.5
  m_AutoUVMaxAngle: 89
  m_LightmapParameters: {fileID: 0}
  m_SortingLayerID: 0
  m_SortingLayer: 0
  m_SortingOrder: 0
  m_Sprite: {fileID: 21300000, guid: 926d9b489f2bdd840a304a012ea8df32, type: 3}
  m_Color: {r: 1, g: 1, b: 1, a: 1}
  m_FlipX: 0
  m_FlipY: 0
  m_DrawMode: 0
  m_Size: {x: 19.2, y: 10.8}
  m_AdaptiveModeThreshold: 0.5
  m_SpriteTileMode: 0
  m_WasSpriteAssigned: 1
  m_MaskInteraction: 0
  m_SpriteSortPoint: 0
--- !u!114 &6136475393729493022
MonoBehaviour:
  m_ObjectHideFlags: 0
  m_CorrespondingSourceObject: {fileID: 0}
  m_PrefabInstance: {fileID: 0}
  m_PrefabAsset: {fileID: 0}
  m_GameObject: {fileID: 6136475393729493018}
  m_Enabled: 1
  m_EditorHideFlags: 0
  m_Script: {fileID: 11500000, guid: 5e3a48c39c4f42a4d931c0d491d0e585, type: 3}
  m_Name: 
  m_EditorClassIdentifier: 
  layerMask:
    serializedVersion: 2
    m_Bits: 64
  character: {fileID: 6136475394438716190}
  targetsInRange: []
--- !u!1 &6136475394184533435
GameObject:
  m_ObjectHideFlags: 0
  m_CorrespondingSourceObject: {fileID: 0}
  m_PrefabInstance: {fileID: 0}
  m_PrefabAsset: {fileID: 0}
  serializedVersion: 6
  m_Component:
  - component: {fileID: 6136475394184533432}
  m_Layer: 0
  m_Name: Anim
  m_TagString: Untagged
  m_Icon: {fileID: 0}
  m_NavMeshLayer: 0
  m_StaticEditorFlags: 0
  m_IsActive: 1
--- !u!4 &6136475394184533432
Transform:
  m_ObjectHideFlags: 0
  m_CorrespondingSourceObject: {fileID: 0}
  m_PrefabInstance: {fileID: 0}
  m_PrefabAsset: {fileID: 0}
  m_GameObject: {fileID: 6136475394184533435}
  m_LocalRotation: {x: 0, y: 0, z: 0, w: 1}
  m_LocalPosition: {x: 0, y: 0, z: 0}
  m_LocalScale: {x: 1, y: 1, z: 1}
  m_Children:
  - {fileID: 1176450044776090038}
  m_Father: {fileID: 6136475394438716181}
  m_RootOrder: 0
  m_LocalEulerAnglesHint: {x: 0, y: 0, z: 0}
--- !u!1 &6136475394438716180
GameObject:
  m_ObjectHideFlags: 0
  m_CorrespondingSourceObject: {fileID: 0}
  m_PrefabInstance: {fileID: 0}
  m_PrefabAsset: {fileID: 0}
  serializedVersion: 6
  m_Component:
  - component: {fileID: 6136475394438716181}
  - component: {fileID: 6136475394438716185}
  - component: {fileID: 6136475394438716190}
  m_Layer: 0
  m_Name: Player
  m_TagString: Untagged
  m_Icon: {fileID: 0}
  m_NavMeshLayer: 0
  m_StaticEditorFlags: 0
  m_IsActive: 1
--- !u!4 &6136475394438716181
Transform:
  m_ObjectHideFlags: 0
  m_CorrespondingSourceObject: {fileID: 0}
  m_PrefabInstance: {fileID: 0}
  m_PrefabAsset: {fileID: 0}
  m_GameObject: {fileID: 6136475394438716180}
  m_LocalRotation: {x: 0, y: 0, z: 0, w: 1}
  m_LocalPosition: {x: 0, y: 1, z: 0}
  m_LocalScale: {x: 1, y: 1, z: 1}
  m_Children:
  - {fileID: 6136475394184533432}
  - {fileID: 6136475393729493019}
  - {fileID: 2212050290888221071}
  - {fileID: 732910376800291753}
  m_Father: {fileID: 0}
  m_RootOrder: 0
  m_LocalEulerAnglesHint: {x: 0, y: 0, z: 0}
--- !u!54 &6136475394438716185
Rigidbody:
  m_ObjectHideFlags: 0
  m_CorrespondingSourceObject: {fileID: 0}
  m_PrefabInstance: {fileID: 0}
  m_PrefabAsset: {fileID: 0}
  m_GameObject: {fileID: 6136475394438716180}
  serializedVersion: 2
  m_Mass: 1
  m_Drag: 0
  m_AngularDrag: 0.05
  m_UseGravity: 1
  m_IsKinematic: 0
  m_Interpolate: 0
  m_Constraints: 112
  m_CollisionDetection: 0
--- !u!114 &6136475394438716190
MonoBehaviour:
  m_ObjectHideFlags: 0
  m_CorrespondingSourceObject: {fileID: 0}
  m_PrefabInstance: {fileID: 0}
  m_PrefabAsset: {fileID: 0}
  m_GameObject: {fileID: 6136475394438716180}
  m_Enabled: 1
  m_EditorHideFlags: 0
  m_Script: {fileID: 11500000, guid: f3c9a6dcc29dbba4cb1e702525811ae8, type: 3}
  m_Name: 
  m_EditorClassIdentifier: 
  poolType: 3
  rb: {fileID: 6136475394438716185}
  anim: {fileID: 9140500559274157260}
  attackRange: {fileID: 6136475393729493022}
  currentTarget: {fileID: 0}
  targetIndicator: {fileID: 8725612820221590121}
  characterEquipment: {fileID: 0}
  capsuleCollider: {fileID: 7907544990324267056}
  speed: 240
  joystick: {fileID: 0}
--- !u!1 &6528098252340038019
GameObject:
  m_ObjectHideFlags: 0
  m_CorrespondingSourceObject: {fileID: 0}
  m_PrefabInstance: {fileID: 0}
  m_PrefabAsset: {fileID: 0}
  serializedVersion: 6
  m_Component:
  - component: {fileID: 732910376800291753}
  - component: {fileID: 6689643827524281878}
  - component: {fileID: 8725612820221590121}
  m_Layer: 0
  m_Name: Target Indicator
  m_TagString: Untagged
  m_Icon: {fileID: 0}
  m_NavMeshLayer: 0
  m_StaticEditorFlags: 0
  m_IsActive: 1
--- !u!4 &732910376800291753
Transform:
  m_ObjectHideFlags: 0
  m_CorrespondingSourceObject: {fileID: 0}
  m_PrefabInstance: {fileID: 0}
  m_PrefabAsset: {fileID: 0}
  m_GameObject: {fileID: 6528098252340038019}
  m_LocalRotation: {x: -0, y: 0.7071068, z: 0.7071068, w: 0}
  m_LocalPosition: {x: 0, y: -0.9, z: 0}
  m_LocalScale: {x: 1.5000001, y: 1.5000001, z: 1.5000001}
  m_Children: []
  m_Father: {fileID: 6136475394438716181}
  m_RootOrder: 3
  m_LocalEulerAnglesHint: {x: -90, y: 0, z: 180}
--- !u!212 &6689643827524281878
SpriteRenderer:
  m_ObjectHideFlags: 0
  m_CorrespondingSourceObject: {fileID: 0}
  m_PrefabInstance: {fileID: 0}
  m_PrefabAsset: {fileID: 0}
  m_GameObject: {fileID: 6528098252340038019}
  m_Enabled: 1
  m_CastShadows: 0
  m_ReceiveShadows: 0
  m_DynamicOccludee: 1
  m_MotionVectors: 1
  m_LightProbeUsage: 1
  m_ReflectionProbeUsage: 1
  m_RayTracingMode: 0
  m_RayTraceProcedural: 0
  m_RenderingLayerMask: 1
  m_RendererPriority: 0
  m_Materials:
  - {fileID: 10754, guid: 0000000000000000f000000000000000, type: 0}
  m_StaticBatchInfo:
    firstSubMesh: 0
    subMeshCount: 0
  m_StaticBatchRoot: {fileID: 0}
  m_ProbeAnchor: {fileID: 0}
  m_LightProbeVolumeOverride: {fileID: 0}
  m_ScaleInLightmap: 1
  m_ReceiveGI: 1
  m_PreserveUVs: 0
  m_IgnoreNormalsForChartDetection: 0
  m_ImportantGI: 0
  m_StitchLightmapSeams: 1
  m_SelectedEditorRenderState: 0
  m_MinimumChartSize: 4
  m_AutoUVMaxDistance: 0.5
  m_AutoUVMaxAngle: 89
  m_LightmapParameters: {fileID: 0}
  m_SortingLayerID: 0
  m_SortingLayer: 0
  m_SortingOrder: 0
  m_Sprite: {fileID: 21300000, guid: 2fb85e3083bcbae45a09bd175f20db7a, type: 3}
  m_Color: {r: 1, g: 1, b: 1, a: 0.08627451}
  m_FlipX: 0
  m_FlipY: 0
  m_DrawMode: 0
  m_Size: {x: 1.2, y: 1.2}
  m_AdaptiveModeThreshold: 0.5
  m_SpriteTileMode: 0
  m_WasSpriteAssigned: 1
  m_MaskInteraction: 0
  m_SpriteSortPoint: 0
--- !u!114 &8725612820221590121
MonoBehaviour:
  m_ObjectHideFlags: 0
  m_CorrespondingSourceObject: {fileID: 0}
  m_PrefabInstance: {fileID: 0}
  m_PrefabAsset: {fileID: 0}
  m_GameObject: {fileID: 6528098252340038019}
  m_Enabled: 1
  m_EditorHideFlags: 0
  m_Script: {fileID: 11500000, guid: 27ff61f11ffe33f4f88ad10e8e9d23ae, type: 3}
  m_Name: 
  m_EditorClassIdentifier: 
--- !u!1001 &4457838830437894202
PrefabInstance:
  m_ObjectHideFlags: 0
  serializedVersion: 2
  m_Modification:
    m_TransformParent: {fileID: 6136475394184533432}
    m_Modifications:
    - target: {fileID: 4099553665942677, guid: d0a16684b100c86489982faf1e4b7726, type: 3}
      propertyPath: m_LocalEulerAnglesHint.x
      value: 3.5624743
      objectReference: {fileID: 0}
    - target: {fileID: 4099553665942677, guid: d0a16684b100c86489982faf1e4b7726, type: 3}
      propertyPath: m_LocalEulerAnglesHint.y
      value: -0.002769243
      objectReference: {fileID: 0}
    - target: {fileID: 4099553665942677, guid: d0a16684b100c86489982faf1e4b7726, type: 3}
      propertyPath: m_LocalEulerAnglesHint.z
      value: -0.020820737
      objectReference: {fileID: 0}
    - target: {fileID: 123963207754605430, guid: d0a16684b100c86489982faf1e4b7726, type: 3}
      propertyPath: m_LocalEulerAnglesHint.x
      value: -0.0000010216612
      objectReference: {fileID: 0}
    - target: {fileID: 123963207754605430, guid: d0a16684b100c86489982faf1e4b7726, type: 3}
      propertyPath: m_LocalEulerAnglesHint.y
      value: -0.00007542406
      objectReference: {fileID: 0}
    - target: {fileID: 123963207754605430, guid: d0a16684b100c86489982faf1e4b7726, type: 3}
      propertyPath: m_LocalEulerAnglesHint.z
      value: 0.0000025526292
      objectReference: {fileID: 0}
    - target: {fileID: 204435413799487440, guid: d0a16684b100c86489982faf1e4b7726, type: 3}
      propertyPath: m_LocalEulerAnglesHint.x
      value: 10.923974
      objectReference: {fileID: 0}
    - target: {fileID: 204435413799487440, guid: d0a16684b100c86489982faf1e4b7726, type: 3}
      propertyPath: m_LocalEulerAnglesHint.y
      value: 2.417615
      objectReference: {fileID: 0}
    - target: {fileID: 204435413799487440, guid: d0a16684b100c86489982faf1e4b7726, type: 3}
      propertyPath: m_LocalEulerAnglesHint.z
      value: 13.906174
      objectReference: {fileID: 0}
    - target: {fileID: 325966795439653105, guid: d0a16684b100c86489982faf1e4b7726, type: 3}
      propertyPath: m_LocalEulerAnglesHint.x
      value: -0.0000023002706
      objectReference: {fileID: 0}
    - target: {fileID: 325966795439653105, guid: d0a16684b100c86489982faf1e4b7726, type: 3}
      propertyPath: m_LocalEulerAnglesHint.y
      value: -0.000015261005
      objectReference: {fileID: 0}
    - target: {fileID: 325966795439653105, guid: d0a16684b100c86489982faf1e4b7726, type: 3}
      propertyPath: m_LocalEulerAnglesHint.z
      value: 0.000012085896
      objectReference: {fileID: 0}
    - target: {fileID: 326229353314994795, guid: d0a16684b100c86489982faf1e4b7726, type: 3}
      propertyPath: m_LocalEulerAnglesHint.x
      value: 4.799404
      objectReference: {fileID: 0}
    - target: {fileID: 326229353314994795, guid: d0a16684b100c86489982faf1e4b7726, type: 3}
      propertyPath: m_LocalEulerAnglesHint.y
      value: 13.99428
      objectReference: {fileID: 0}
    - target: {fileID: 326229353314994795, guid: d0a16684b100c86489982faf1e4b7726, type: 3}
      propertyPath: m_LocalEulerAnglesHint.z
      value: -163.17863
      objectReference: {fileID: 0}
    - target: {fileID: 437197299654385388, guid: d0a16684b100c86489982faf1e4b7726, type: 3}
      propertyPath: m_LocalEulerAnglesHint.x
      value: 0.13524774
      objectReference: {fileID: 0}
    - target: {fileID: 437197299654385388, guid: d0a16684b100c86489982faf1e4b7726, type: 3}
      propertyPath: m_LocalEulerAnglesHint.y
      value: -4.1409426
      objectReference: {fileID: 0}
    - target: {fileID: 437197299654385388, guid: d0a16684b100c86489982faf1e4b7726, type: 3}
      propertyPath: m_LocalEulerAnglesHint.z
      value: -61.54956
      objectReference: {fileID: 0}
    - target: {fileID: 688529581851360640, guid: d0a16684b100c86489982faf1e4b7726, type: 3}
      propertyPath: m_LocalEulerAnglesHint.x
      value: 0.00017213821
      objectReference: {fileID: 0}
    - target: {fileID: 688529581851360640, guid: d0a16684b100c86489982faf1e4b7726, type: 3}
      propertyPath: m_LocalEulerAnglesHint.y
      value: -0.0000008940697
      objectReference: {fileID: 0}
    - target: {fileID: 688529581851360640, guid: d0a16684b100c86489982faf1e4b7726, type: 3}
      propertyPath: m_LocalEulerAnglesHint.z
      value: -0.000008285046
      objectReference: {fileID: 0}
    - target: {fileID: 995252212825886095, guid: d0a16684b100c86489982faf1e4b7726, type: 3}
      propertyPath: m_LocalEulerAnglesHint.x
      value: 0.000017708098
      objectReference: {fileID: 0}
    - target: {fileID: 995252212825886095, guid: d0a16684b100c86489982faf1e4b7726, type: 3}
      propertyPath: m_LocalEulerAnglesHint.y
      value: -0.000027977016
      objectReference: {fileID: 0}
    - target: {fileID: 995252212825886095, guid: d0a16684b100c86489982faf1e4b7726, type: 3}
      propertyPath: m_LocalEulerAnglesHint.z
      value: 0.000011443528
      objectReference: {fileID: 0}
    - target: {fileID: 1030500320147992947, guid: d0a16684b100c86489982faf1e4b7726, type: 3}
      propertyPath: m_LocalEulerAnglesHint.x
      value: 13.3099575
      objectReference: {fileID: 0}
    - target: {fileID: 1030500320147992947, guid: d0a16684b100c86489982faf1e4b7726, type: 3}
      propertyPath: m_LocalEulerAnglesHint.y
      value: 7.8674765
      objectReference: {fileID: 0}
    - target: {fileID: 1030500320147992947, guid: d0a16684b100c86489982faf1e4b7726, type: 3}
      propertyPath: m_LocalEulerAnglesHint.z
      value: 53.58842
      objectReference: {fileID: 0}
    - target: {fileID: 1234251827697846786, guid: d0a16684b100c86489982faf1e4b7726, type: 3}
      propertyPath: m_LocalEulerAnglesHint.x
      value: 0.000009825252
      objectReference: {fileID: 0}
    - target: {fileID: 1268480708137490363, guid: d0a16684b100c86489982faf1e4b7726, type: 3}
      propertyPath: m_LocalEulerAnglesHint.x
      value: -0.0000029611028
      objectReference: {fileID: 0}
    - target: {fileID: 1268480708137490363, guid: d0a16684b100c86489982faf1e4b7726, type: 3}
      propertyPath: m_LocalEulerAnglesHint.y
      value: 0.0028958465
      objectReference: {fileID: 0}
    - target: {fileID: 1268480708137490363, guid: d0a16684b100c86489982faf1e4b7726, type: 3}
      propertyPath: m_LocalEulerAnglesHint.z
      value: 0.000004588233
      objectReference: {fileID: 0}
    - target: {fileID: 1408392347810969547, guid: d0a16684b100c86489982faf1e4b7726, type: 3}
      propertyPath: m_LocalEulerAnglesHint.x
      value: -0.000015358888
      objectReference: {fileID: 0}
    - target: {fileID: 1408392347810969547, guid: d0a16684b100c86489982faf1e4b7726, type: 3}
      propertyPath: m_LocalEulerAnglesHint.y
      value: 0.0000017619101
      objectReference: {fileID: 0}
    - target: {fileID: 1408392347810969547, guid: d0a16684b100c86489982faf1e4b7726, type: 3}
      propertyPath: m_LocalEulerAnglesHint.z
      value: 0.0000011746063
      objectReference: {fileID: 0}
    - target: {fileID: 1455896126183578403, guid: d0a16684b100c86489982faf1e4b7726, type: 3}
      propertyPath: m_LocalEulerAnglesHint.x
      value: 50.22539
      objectReference: {fileID: 0}
    - target: {fileID: 1455896126183578403, guid: d0a16684b100c86489982faf1e4b7726, type: 3}
      propertyPath: m_LocalEulerAnglesHint.y
      value: 1.0919621
      objectReference: {fileID: 0}
    - target: {fileID: 1455896126183578403, guid: d0a16684b100c86489982faf1e4b7726, type: 3}
      propertyPath: m_LocalEulerAnglesHint.z
      value: 2.4405613
      objectReference: {fileID: 0}
    - target: {fileID: 2005687338461066143, guid: d0a16684b100c86489982faf1e4b7726, type: 3}
      propertyPath: m_Name
      value: CharacterBase
      objectReference: {fileID: 0}
    - target: {fileID: 2197645261896113886, guid: d0a16684b100c86489982faf1e4b7726, type: 3}
      propertyPath: m_LocalEulerAnglesHint.x
      value: 9.010702
      objectReference: {fileID: 0}
    - target: {fileID: 2197645261896113886, guid: d0a16684b100c86489982faf1e4b7726, type: 3}
      propertyPath: m_LocalEulerAnglesHint.y
      value: -5.966649
      objectReference: {fileID: 0}
    - target: {fileID: 2197645261896113886, guid: d0a16684b100c86489982faf1e4b7726, type: 3}
      propertyPath: m_LocalEulerAnglesHint.z
      value: -0.17259547
      objectReference: {fileID: 0}
    - target: {fileID: 2209809086905237303, guid: d0a16684b100c86489982faf1e4b7726, type: 3}
      propertyPath: m_LocalEulerAnglesHint.x
      value: 36.637817
      objectReference: {fileID: 0}
    - target: {fileID: 2209809086905237303, guid: d0a16684b100c86489982faf1e4b7726, type: 3}
      propertyPath: m_LocalEulerAnglesHint.y
      value: 8.532892
      objectReference: {fileID: 0}
    - target: {fileID: 2209809086905237303, guid: d0a16684b100c86489982faf1e4b7726, type: 3}
      propertyPath: m_LocalEulerAnglesHint.z
      value: 9.39971
      objectReference: {fileID: 0}
    - target: {fileID: 2573323402641828350, guid: d0a16684b100c86489982faf1e4b7726, type: 3}
      propertyPath: m_LocalEulerAnglesHint.x
      value: -0.0000001521789
      objectReference: {fileID: 0}
    - target: {fileID: 2573323402641828350, guid: d0a16684b100c86489982faf1e4b7726, type: 3}
      propertyPath: m_LocalEulerAnglesHint.y
      value: -0.000000111648845
      objectReference: {fileID: 0}
    - target: {fileID: 2573323402641828350, guid: d0a16684b100c86489982faf1e4b7726, type: 3}
      propertyPath: m_LocalEulerAnglesHint.z
      value: -0.000000058118562
      objectReference: {fileID: 0}
    - target: {fileID: 2591203911760702561, guid: d0a16684b100c86489982faf1e4b7726, type: 3}
      propertyPath: m_LocalEulerAnglesHint.x
      value: -0.33145016
      objectReference: {fileID: 0}
    - target: {fileID: 2591203911760702561, guid: d0a16684b100c86489982faf1e4b7726, type: 3}
      propertyPath: m_LocalEulerAnglesHint.y
      value: -0.3069412
      objectReference: {fileID: 0}
    - target: {fileID: 2591203911760702561, guid: d0a16684b100c86489982faf1e4b7726, type: 3}
      propertyPath: m_LocalEulerAnglesHint.z
      value: 25.996187
      objectReference: {fileID: 0}
    - target: {fileID: 2912514130476991590, guid: d0a16684b100c86489982faf1e4b7726, type: 3}
      propertyPath: m_LocalEulerAnglesHint.x
      value: 0.00000004205949
      objectReference: {fileID: 0}
    - target: {fileID: 2912514130476991590, guid: d0a16684b100c86489982faf1e4b7726, type: 3}
      propertyPath: m_LocalEulerAnglesHint.y
      value: 0.00000008717786
      objectReference: {fileID: 0}
    - target: {fileID: 2912514130476991590, guid: d0a16684b100c86489982faf1e4b7726, type: 3}
      propertyPath: m_LocalEulerAnglesHint.z
      value: -0.000000036706464
      objectReference: {fileID: 0}
    - target: {fileID: 3052553151530690220, guid: d0a16684b100c86489982faf1e4b7726, type: 3}
      propertyPath: m_LocalEulerAnglesHint.x
      value: 2.1107218
      objectReference: {fileID: 0}
    - target: {fileID: 3052553151530690220, guid: d0a16684b100c86489982faf1e4b7726, type: 3}
      propertyPath: m_LocalEulerAnglesHint.y
      value: -2.7842357
      objectReference: {fileID: 0}
    - target: {fileID: 3052553151530690220, guid: d0a16684b100c86489982faf1e4b7726, type: 3}
      propertyPath: m_LocalEulerAnglesHint.z
      value: 0.41930598
      objectReference: {fileID: 0}
    - target: {fileID: 3059115367216259850, guid: d0a16684b100c86489982faf1e4b7726, type: 3}
      propertyPath: m_LocalEulerAnglesHint.x
      value: -2.766592
      objectReference: {fileID: 0}
    - target: {fileID: 3059115367216259850, guid: d0a16684b100c86489982faf1e4b7726, type: 3}
      propertyPath: m_LocalEulerAnglesHint.y
      value: 35.372864
      objectReference: {fileID: 0}
    - target: {fileID: 3059115367216259850, guid: d0a16684b100c86489982faf1e4b7726, type: 3}
      propertyPath: m_LocalEulerAnglesHint.z
      value: -0.94873226
      objectReference: {fileID: 0}
    - target: {fileID: 3282838088177320332, guid: d0a16684b100c86489982faf1e4b7726, type: 3}
      propertyPath: m_RootOrder
      value: 0
      objectReference: {fileID: 0}
    - target: {fileID: 3282838088177320332, guid: d0a16684b100c86489982faf1e4b7726, type: 3}
      propertyPath: m_LocalScale.x
      value: 1
      objectReference: {fileID: 0}
    - target: {fileID: 3282838088177320332, guid: d0a16684b100c86489982faf1e4b7726, type: 3}
      propertyPath: m_LocalScale.y
      value: 1
      objectReference: {fileID: 0}
    - target: {fileID: 3282838088177320332, guid: d0a16684b100c86489982faf1e4b7726, type: 3}
      propertyPath: m_LocalScale.z
      value: 1
      objectReference: {fileID: 0}
    - target: {fileID: 3282838088177320332, guid: d0a16684b100c86489982faf1e4b7726, type: 3}
      propertyPath: m_LocalPosition.x
      value: 0
      objectReference: {fileID: 0}
    - target: {fileID: 3282838088177320332, guid: d0a16684b100c86489982faf1e4b7726, type: 3}
      propertyPath: m_LocalPosition.y
      value: -1
      objectReference: {fileID: 0}
    - target: {fileID: 3282838088177320332, guid: d0a16684b100c86489982faf1e4b7726, type: 3}
      propertyPath: m_LocalPosition.z
      value: 0
      objectReference: {fileID: 0}
    - target: {fileID: 3282838088177320332, guid: d0a16684b100c86489982faf1e4b7726, type: 3}
      propertyPath: m_LocalRotation.w
      value: 1
      objectReference: {fileID: 0}
    - target: {fileID: 3282838088177320332, guid: d0a16684b100c86489982faf1e4b7726, type: 3}
      propertyPath: m_LocalRotation.x
      value: -0
      objectReference: {fileID: 0}
    - target: {fileID: 3282838088177320332, guid: d0a16684b100c86489982faf1e4b7726, type: 3}
      propertyPath: m_LocalRotation.y
      value: -0
      objectReference: {fileID: 0}
    - target: {fileID: 3282838088177320332, guid: d0a16684b100c86489982faf1e4b7726, type: 3}
      propertyPath: m_LocalRotation.z
      value: -0
      objectReference: {fileID: 0}
    - target: {fileID: 3282838088177320332, guid: d0a16684b100c86489982faf1e4b7726, type: 3}
      propertyPath: m_LocalEulerAnglesHint.x
      value: 0
      objectReference: {fileID: 0}
    - target: {fileID: 3282838088177320332, guid: d0a16684b100c86489982faf1e4b7726, type: 3}
      propertyPath: m_LocalEulerAnglesHint.y
      value: 0
      objectReference: {fileID: 0}
    - target: {fileID: 3282838088177320332, guid: d0a16684b100c86489982faf1e4b7726, type: 3}
      propertyPath: m_LocalEulerAnglesHint.z
      value: 0
      objectReference: {fileID: 0}
    - target: {fileID: 3417896558941010138, guid: d0a16684b100c86489982faf1e4b7726, type: 3}
      propertyPath: m_LocalEulerAnglesHint.x
      value: -0.000071998336
      objectReference: {fileID: 0}
    - target: {fileID: 3417896558941010138, guid: d0a16684b100c86489982faf1e4b7726, type: 3}
      propertyPath: m_LocalEulerAnglesHint.y
      value: -0.00015424949
      objectReference: {fileID: 0}
    - target: {fileID: 3417896558941010138, guid: d0a16684b100c86489982faf1e4b7726, type: 3}
      propertyPath: m_LocalEulerAnglesHint.z
      value: -0.00016659846
      objectReference: {fileID: 0}
    - target: {fileID: 3540893767100081403, guid: d0a16684b100c86489982faf1e4b7726, type: 3}
      propertyPath: m_LocalEulerAnglesHint.x
      value: 9.016314
      objectReference: {fileID: 0}
    - target: {fileID: 3540893767100081403, guid: d0a16684b100c86489982faf1e4b7726, type: 3}
      propertyPath: m_LocalEulerAnglesHint.y
      value: -5.9665375
      objectReference: {fileID: 0}
    - target: {fileID: 3540893767100081403, guid: d0a16684b100c86489982faf1e4b7726, type: 3}
      propertyPath: m_LocalEulerAnglesHint.z
      value: -0.17277625
      objectReference: {fileID: 0}
    - target: {fileID: 3542439734581905251, guid: d0a16684b100c86489982faf1e4b7726, type: 3}
      propertyPath: m_LocalEulerAnglesHint.x
      value: -44.226532
      objectReference: {fileID: 0}
    - target: {fileID: 3542439734581905251, guid: d0a16684b100c86489982faf1e4b7726, type: 3}
      propertyPath: m_LocalEulerAnglesHint.y
      value: -11.69213
      objectReference: {fileID: 0}
    - target: {fileID: 3542439734581905251, guid: d0a16684b100c86489982faf1e4b7726, type: 3}
      propertyPath: m_LocalEulerAnglesHint.z
      value: 6.440416
      objectReference: {fileID: 0}
    - target: {fileID: 3669186797046410475, guid: d0a16684b100c86489982faf1e4b7726, type: 3}
      propertyPath: m_LocalEulerAnglesHint.x
      value: 10.785318
      objectReference: {fileID: 0}
    - target: {fileID: 3669186797046410475, guid: d0a16684b100c86489982faf1e4b7726, type: 3}
      propertyPath: m_LocalEulerAnglesHint.y
      value: -57.3611
      objectReference: {fileID: 0}
    - target: {fileID: 3669186797046410475, guid: d0a16684b100c86489982faf1e4b7726, type: 3}
      propertyPath: m_LocalEulerAnglesHint.z
      value: -28.379345
      objectReference: {fileID: 0}
    - target: {fileID: 3725929987573913991, guid: d0a16684b100c86489982faf1e4b7726, type: 3}
      propertyPath: m_LocalEulerAnglesHint.x
      value: 17.728188
      objectReference: {fileID: 0}
    - target: {fileID: 3725929987573913991, guid: d0a16684b100c86489982faf1e4b7726, type: 3}
      propertyPath: m_LocalEulerAnglesHint.y
      value: 16.099487
      objectReference: {fileID: 0}
    - target: {fileID: 3725929987573913991, guid: d0a16684b100c86489982faf1e4b7726, type: 3}
      propertyPath: m_LocalEulerAnglesHint.z
      value: 20.809269
      objectReference: {fileID: 0}
    - target: {fileID: 4076993846720868808, guid: d0a16684b100c86489982faf1e4b7726, type: 3}
      propertyPath: m_LocalEulerAnglesHint.x
      value: 0.0003492411
      objectReference: {fileID: 0}
    - target: {fileID: 4076993846720868808, guid: d0a16684b100c86489982faf1e4b7726, type: 3}
      propertyPath: m_LocalEulerAnglesHint.y
      value: -0.000033776956
      objectReference: {fileID: 0}
    - target: {fileID: 4076993846720868808, guid: d0a16684b100c86489982faf1e4b7726, type: 3}
      propertyPath: m_LocalEulerAnglesHint.z
      value: -0.00010927422
      objectReference: {fileID: 0}
    - target: {fileID: 4304156388477650671, guid: d0a16684b100c86489982faf1e4b7726, type: 3}
      propertyPath: m_LocalEulerAnglesHint.x
      value: -3.6361828
      objectReference: {fileID: 0}
    - target: {fileID: 4304156388477650671, guid: d0a16684b100c86489982faf1e4b7726, type: 3}
      propertyPath: m_LocalEulerAnglesHint.y
      value: 7.130788
      objectReference: {fileID: 0}
    - target: {fileID: 4304156388477650671, guid: d0a16684b100c86489982faf1e4b7726, type: 3}
      propertyPath: m_LocalEulerAnglesHint.z
      value: 14.12649
      objectReference: {fileID: 0}
    - target: {fileID: 4395176666060541979, guid: d0a16684b100c86489982faf1e4b7726, type: 3}
      propertyPath: m_LocalEulerAnglesHint.x
      value: 0.30815452
      objectReference: {fileID: 0}
    - target: {fileID: 4395176666060541979, guid: d0a16684b100c86489982faf1e4b7726, type: 3}
      propertyPath: m_LocalEulerAnglesHint.y
      value: -0.8322934
      objectReference: {fileID: 0}
    - target: {fileID: 4395176666060541979, guid: d0a16684b100c86489982faf1e4b7726, type: 3}
      propertyPath: m_LocalEulerAnglesHint.z
      value: -4.9549413
      objectReference: {fileID: 0}
    - target: {fileID: 4481494535536515925, guid: d0a16684b100c86489982faf1e4b7726, type: 3}
      propertyPath: m_LocalEulerAnglesHint.x
      value: -0.0003059053
      objectReference: {fileID: 0}
    - target: {fileID: 4481494535536515925, guid: d0a16684b100c86489982faf1e4b7726, type: 3}
      propertyPath: m_LocalEulerAnglesHint.y
      value: 0.00006023613
      objectReference: {fileID: 0}
    - target: {fileID: 4481494535536515925, guid: d0a16684b100c86489982faf1e4b7726, type: 3}
      propertyPath: m_LocalEulerAnglesHint.z
      value: 0.00013827879
      objectReference: {fileID: 0}
    - target: {fileID: 4534540676233201095, guid: d0a16684b100c86489982faf1e4b7726, type: 3}
      propertyPath: m_LocalEulerAnglesHint.x
      value: 22.200293
      objectReference: {fileID: 0}
    - target: {fileID: 4534540676233201095, guid: d0a16684b100c86489982faf1e4b7726, type: 3}
      propertyPath: m_LocalEulerAnglesHint.y
      value: -14.451656
      objectReference: {fileID: 0}
    - target: {fileID: 4534540676233201095, guid: d0a16684b100c86489982faf1e4b7726, type: 3}
      propertyPath: m_LocalEulerAnglesHint.z
      value: -14.390191
      objectReference: {fileID: 0}
    - target: {fileID: 4722519768394278779, guid: d0a16684b100c86489982faf1e4b7726, type: 3}
      propertyPath: m_LocalEulerAnglesHint.x
      value: -1.3438148
      objectReference: {fileID: 0}
    - target: {fileID: 4722519768394278779, guid: d0a16684b100c86489982faf1e4b7726, type: 3}
      propertyPath: m_LocalEulerAnglesHint.y
      value: -20.489199
      objectReference: {fileID: 0}
    - target: {fileID: 4722519768394278779, guid: d0a16684b100c86489982faf1e4b7726, type: 3}
      propertyPath: m_LocalEulerAnglesHint.z
      value: 8.547633
      objectReference: {fileID: 0}
    - target: {fileID: 4743775706451583626, guid: d0a16684b100c86489982faf1e4b7726, type: 3}
      propertyPath: m_LocalEulerAnglesHint.x
      value: 71.61498
      objectReference: {fileID: 0}
    - target: {fileID: 4743775706451583626, guid: d0a16684b100c86489982faf1e4b7726, type: 3}
      propertyPath: m_LocalEulerAnglesHint.y
      value: -63.35561
      objectReference: {fileID: 0}
    - target: {fileID: 4743775706451583626, guid: d0a16684b100c86489982faf1e4b7726, type: 3}
      propertyPath: m_LocalEulerAnglesHint.z
      value: -73.9273
      objectReference: {fileID: 0}
    - target: {fileID: 4891983950826098603, guid: d0a16684b100c86489982faf1e4b7726, type: 3}
      propertyPath: m_LocalEulerAnglesHint.x
      value: 0.00000022023916
      objectReference: {fileID: 0}
    - target: {fileID: 4891983950826098603, guid: d0a16684b100c86489982faf1e4b7726, type: 3}
      propertyPath: m_LocalEulerAnglesHint.y
      value: 0.000009192201
      objectReference: {fileID: 0}
    - target: {fileID: 4891983950826098603, guid: d0a16684b100c86489982faf1e4b7726, type: 3}
      propertyPath: m_LocalEulerAnglesHint.z
      value: -0.0000051021984
      objectReference: {fileID: 0}
    - target: {fileID: 4914576422835483763, guid: d0a16684b100c86489982faf1e4b7726, type: 3}
      propertyPath: m_LocalEulerAnglesHint.x
      value: -0.00000078307136
      objectReference: {fileID: 0}
    - target: {fileID: 4914576422835483763, guid: d0a16684b100c86489982faf1e4b7726, type: 3}
      propertyPath: m_LocalEulerAnglesHint.y
      value: -0.00000058730353
      objectReference: {fileID: 0}
    - target: {fileID: 4914576422835483763, guid: d0a16684b100c86489982faf1e4b7726, type: 3}
      propertyPath: m_LocalEulerAnglesHint.z
      value: 0.00000039153562
      objectReference: {fileID: 0}
    - target: {fileID: 4924396240609647263, guid: d0a16684b100c86489982faf1e4b7726, type: 3}
      propertyPath: m_LocalEulerAnglesHint.x
      value: -0.00000032729847
      objectReference: {fileID: 0}
    - target: {fileID: 4924396240609647263, guid: d0a16684b100c86489982faf1e4b7726, type: 3}
      propertyPath: m_LocalEulerAnglesHint.y
      value: -0.000010476927
      objectReference: {fileID: 0}
    - target: {fileID: 4924396240609647263, guid: d0a16684b100c86489982faf1e4b7726, type: 3}
      propertyPath: m_LocalEulerAnglesHint.z
      value: 0.000011050466
      objectReference: {fileID: 0}
    - target: {fileID: 5054250928773850412, guid: d0a16684b100c86489982faf1e4b7726, type: 3}
      propertyPath: m_LocalEulerAnglesHint.x
      value: 11.854914
      objectReference: {fileID: 0}
    - target: {fileID: 5054250928773850412, guid: d0a16684b100c86489982faf1e4b7726, type: 3}
      propertyPath: m_LocalEulerAnglesHint.y
      value: 12.548031
      objectReference: {fileID: 0}
    - target: {fileID: 5054250928773850412, guid: d0a16684b100c86489982faf1e4b7726, type: 3}
      propertyPath: m_LocalEulerAnglesHint.z
      value: 21.803116
      objectReference: {fileID: 0}
    - target: {fileID: 5685054366577851791, guid: d0a16684b100c86489982faf1e4b7726, type: 3}
      propertyPath: m_LocalEulerAnglesHint.x
      value: 3.1682541
      objectReference: {fileID: 0}
    - target: {fileID: 5685054366577851791, guid: d0a16684b100c86489982faf1e4b7726, type: 3}
      propertyPath: m_LocalEulerAnglesHint.y
      value: 1.3672893
      objectReference: {fileID: 0}
    - target: {fileID: 5685054366577851791, guid: d0a16684b100c86489982faf1e4b7726, type: 3}
      propertyPath: m_LocalEulerAnglesHint.z
      value: 22.576693
      objectReference: {fileID: 0}
    - target: {fileID: 5882063758237030073, guid: d0a16684b100c86489982faf1e4b7726, type: 3}
      propertyPath: m_LocalEulerAnglesHint.x
      value: -0.00018254659
      objectReference: {fileID: 0}
    - target: {fileID: 5882063758237030073, guid: d0a16684b100c86489982faf1e4b7726, type: 3}
      propertyPath: m_LocalEulerAnglesHint.y
      value: 0.00048639378
      objectReference: {fileID: 0}
    - target: {fileID: 5882063758237030073, guid: d0a16684b100c86489982faf1e4b7726, type: 3}
      propertyPath: m_LocalEulerAnglesHint.z
      value: 0.00046907715
      objectReference: {fileID: 0}
    - target: {fileID: 6030165603264226135, guid: d0a16684b100c86489982faf1e4b7726, type: 3}
      propertyPath: weaponId
      value: Weapon1
      objectReference: {fileID: 0}
    - target: {fileID: 6030165603264226135, guid: d0a16684b100c86489982faf1e4b7726, type: 3}
      propertyPath: weaponSlotTransform
      value: 
      objectReference: {fileID: 461060007828508373}
    - target: {fileID: 6319872354718842851, guid: d0a16684b100c86489982faf1e4b7726, type: 3}
      propertyPath: m_LocalEulerAnglesHint.x
      value: -31.977917
      objectReference: {fileID: 0}
    - target: {fileID: 6319872354718842851, guid: d0a16684b100c86489982faf1e4b7726, type: 3}
      propertyPath: m_LocalEulerAnglesHint.y
      value: -3.5332525
      objectReference: {fileID: 0}
    - target: {fileID: 6319872354718842851, guid: d0a16684b100c86489982faf1e4b7726, type: 3}
      propertyPath: m_LocalEulerAnglesHint.z
      value: 167.13525
      objectReference: {fileID: 0}
    - target: {fileID: 6636820772957790439, guid: d0a16684b100c86489982faf1e4b7726, type: 3}
      propertyPath: m_LocalEulerAnglesHint.x
      value: 0.000042552845
      objectReference: {fileID: 0}
    - target: {fileID: 6636820772957790439, guid: d0a16684b100c86489982faf1e4b7726, type: 3}
      propertyPath: m_LocalEulerAnglesHint.y
      value: -0.0000009788376
      objectReference: {fileID: 0}
    - target: {fileID: 6636820772957790439, guid: d0a16684b100c86489982faf1e4b7726, type: 3}
      propertyPath: m_LocalEulerAnglesHint.z
      value: 0.0000045026595
      objectReference: {fileID: 0}
    - target: {fileID: 6646200743779013940, guid: d0a16684b100c86489982faf1e4b7726, type: 3}
      propertyPath: m_LocalEulerAnglesHint.x
      value: -11.239473
      objectReference: {fileID: 0}
    - target: {fileID: 6646200743779013940, guid: d0a16684b100c86489982faf1e4b7726, type: 3}
      propertyPath: m_LocalEulerAnglesHint.y
      value: -8.105894
      objectReference: {fileID: 0}
    - target: {fileID: 6646200743779013940, guid: d0a16684b100c86489982faf1e4b7726, type: 3}
      propertyPath: m_LocalEulerAnglesHint.z
      value: 46.678795
      objectReference: {fileID: 0}
    - target: {fileID: 6732279583120551656, guid: d0a16684b100c86489982faf1e4b7726, type: 3}
      propertyPath: m_LocalEulerAnglesHint.x
      value: 0.000409135
      objectReference: {fileID: 0}
    - target: {fileID: 6732279583120551656, guid: d0a16684b100c86489982faf1e4b7726, type: 3}
      propertyPath: m_LocalEulerAnglesHint.y
      value: -0.0000023492828
      objectReference: {fileID: 0}
    - target: {fileID: 6732279583120551656, guid: d0a16684b100c86489982faf1e4b7726, type: 3}
      propertyPath: m_LocalEulerAnglesHint.z
      value: -0.000020693566
      objectReference: {fileID: 0}
    - target: {fileID: 7004767513238253099, guid: d0a16684b100c86489982faf1e4b7726, type: 3}
      propertyPath: m_LocalEulerAnglesHint.x
      value: -37.885155
      objectReference: {fileID: 0}
    - target: {fileID: 7004767513238253099, guid: d0a16684b100c86489982faf1e4b7726, type: 3}
      propertyPath: m_LocalEulerAnglesHint.y
      value: -7.0098033
      objectReference: {fileID: 0}
    - target: {fileID: 7004767513238253099, guid: d0a16684b100c86489982faf1e4b7726, type: 3}
      propertyPath: m_LocalEulerAnglesHint.z
      value: 11.746215
      objectReference: {fileID: 0}
    - target: {fileID: 7378121211684218016, guid: d0a16684b100c86489982faf1e4b7726, type: 3}
      propertyPath: m_LocalEulerAnglesHint.x
      value: 4.088281
      objectReference: {fileID: 0}
    - target: {fileID: 7378121211684218016, guid: d0a16684b100c86489982faf1e4b7726, type: 3}
      propertyPath: m_LocalEulerAnglesHint.y
      value: -3.483518
      objectReference: {fileID: 0}
    - target: {fileID: 7378121211684218016, guid: d0a16684b100c86489982faf1e4b7726, type: 3}
      propertyPath: m_LocalEulerAnglesHint.z
      value: -13.7823105
      objectReference: {fileID: 0}
    - target: {fileID: 7491508755622539959, guid: d0a16684b100c86489982faf1e4b7726, type: 3}
      propertyPath: m_LocalEulerAnglesHint.x
      value: -0.00040656558
      objectReference: {fileID: 0}
    - target: {fileID: 7491508755622539959, guid: d0a16684b100c86489982faf1e4b7726, type: 3}
      propertyPath: m_LocalEulerAnglesHint.y
      value: 0.000001566077
      objectReference: {fileID: 0}
    - target: {fileID: 7491508755622539959, guid: d0a16684b100c86489982faf1e4b7726, type: 3}
      propertyPath: m_LocalEulerAnglesHint.z
      value: 0.000019714715
      objectReference: {fileID: 0}
    - target: {fileID: 7692503649766966867, guid: d0a16684b100c86489982faf1e4b7726, type: 3}
      propertyPath: m_LocalEulerAnglesHint.x
      value: 8.454889
      objectReference: {fileID: 0}
    - target: {fileID: 7692503649766966867, guid: d0a16684b100c86489982faf1e4b7726, type: 3}
      propertyPath: m_LocalEulerAnglesHint.y
      value: -18.185734
      objectReference: {fileID: 0}
    - target: {fileID: 7692503649766966867, guid: d0a16684b100c86489982faf1e4b7726, type: 3}
      propertyPath: m_LocalEulerAnglesHint.z
      value: -4.7666416
      objectReference: {fileID: 0}
    - target: {fileID: 7965908663153602353, guid: d0a16684b100c86489982faf1e4b7726, type: 3}
      propertyPath: m_LocalEulerAnglesHint.x
      value: 17.606344
      objectReference: {fileID: 0}
    - target: {fileID: 7965908663153602353, guid: d0a16684b100c86489982faf1e4b7726, type: 3}
      propertyPath: m_LocalEulerAnglesHint.y
      value: -0.36017656
      objectReference: {fileID: 0}
    - target: {fileID: 7965908663153602353, guid: d0a16684b100c86489982faf1e4b7726, type: 3}
      propertyPath: m_LocalEulerAnglesHint.z
      value: -2.0019338
      objectReference: {fileID: 0}
    - target: {fileID: 8030871879282847902, guid: d0a16684b100c86489982faf1e4b7726, type: 3}
      propertyPath: m_LocalEulerAnglesHint.x
      value: 0.00000006729686
      objectReference: {fileID: 0}
    - target: {fileID: 8030871879282847902, guid: d0a16684b100c86489982faf1e4b7726, type: 3}
      propertyPath: m_LocalEulerAnglesHint.y
      value: 0.00001424546
      objectReference: {fileID: 0}
    - target: {fileID: 8030871879282847902, guid: d0a16684b100c86489982faf1e4b7726, type: 3}
      propertyPath: m_LocalEulerAnglesHint.z
      value: -0.00001473488
      objectReference: {fileID: 0}
    - target: {fileID: 8208708496299942003, guid: d0a16684b100c86489982faf1e4b7726, type: 3}
      propertyPath: m_LocalEulerAnglesHint.x
      value: 0.00016659716
      objectReference: {fileID: 0}
    - target: {fileID: 8208708496299942003, guid: d0a16684b100c86489982faf1e4b7726, type: 3}
      propertyPath: m_LocalEulerAnglesHint.y
      value: -0.0004166482
      objectReference: {fileID: 0}
    - target: {fileID: 8208708496299942003, guid: d0a16684b100c86489982faf1e4b7726, type: 3}
      propertyPath: m_LocalEulerAnglesHint.z
      value: -0.00041821433
      objectReference: {fileID: 0}
    - target: {fileID: 8249877325819966568, guid: d0a16684b100c86489982faf1e4b7726, type: 3}
      propertyPath: m_LocalEulerAnglesHint.x
      value: 26.917923
      objectReference: {fileID: 0}
    - target: {fileID: 8249877325819966568, guid: d0a16684b100c86489982faf1e4b7726, type: 3}
      propertyPath: m_LocalEulerAnglesHint.y
      value: 13.411822
      objectReference: {fileID: 0}
    - target: {fileID: 8249877325819966568, guid: d0a16684b100c86489982faf1e4b7726, type: 3}
      propertyPath: m_LocalEulerAnglesHint.z
      value: 25.661844
      objectReference: {fileID: 0}
    - target: {fileID: 8636483092943168652, guid: d0a16684b100c86489982faf1e4b7726, type: 3}
      propertyPath: m_LocalEulerAnglesHint.x
      value: 64.70621
      objectReference: {fileID: 0}
    - target: {fileID: 8636483092943168652, guid: d0a16684b100c86489982faf1e4b7726, type: 3}
      propertyPath: m_LocalEulerAnglesHint.y
      value: -88.58243
      objectReference: {fileID: 0}
    - target: {fileID: 8636483092943168652, guid: d0a16684b100c86489982faf1e4b7726, type: 3}
      propertyPath: m_LocalEulerAnglesHint.z
      value: -175.67262
      objectReference: {fileID: 0}
    - target: {fileID: 8687892963927595339, guid: d0a16684b100c86489982faf1e4b7726, type: 3}
      propertyPath: m_LocalEulerAnglesHint.x
      value: 25.44377
      objectReference: {fileID: 0}
    - target: {fileID: 8687892963927595339, guid: d0a16684b100c86489982faf1e4b7726, type: 3}
      propertyPath: m_LocalEulerAnglesHint.y
      value: -31.59872
      objectReference: {fileID: 0}
    - target: {fileID: 8687892963927595339, guid: d0a16684b100c86489982faf1e4b7726, type: 3}
      propertyPath: m_LocalEulerAnglesHint.z
      value: -65.25191
      objectReference: {fileID: 0}
    - target: {fileID: 8899118372046002281, guid: d0a16684b100c86489982faf1e4b7726, type: 3}
      propertyPath: m_LocalEulerAnglesHint.x
      value: 66.95172
      objectReference: {fileID: 0}
    - target: {fileID: 8899118372046002281, guid: d0a16684b100c86489982faf1e4b7726, type: 3}
      propertyPath: m_LocalEulerAnglesHint.y
      value: 90.66754
      objectReference: {fileID: 0}
    - target: {fileID: 8899118372046002281, guid: d0a16684b100c86489982faf1e4b7726, type: 3}
      propertyPath: m_LocalEulerAnglesHint.z
      value: -1.419281
      objectReference: {fileID: 0}
    - target: {fileID: 9103357527930616820, guid: d0a16684b100c86489982faf1e4b7726, type: 3}
      propertyPath: m_LocalEulerAnglesHint.x
      value: 59.69107
      objectReference: {fileID: 0}
    - target: {fileID: 9103357527930616820, guid: d0a16684b100c86489982faf1e4b7726, type: 3}
      propertyPath: m_LocalEulerAnglesHint.y
      value: 13.279778
      objectReference: {fileID: 0}
    - target: {fileID: 9103357527930616820, guid: d0a16684b100c86489982faf1e4b7726, type: 3}
      propertyPath: m_LocalEulerAnglesHint.z
      value: 16.44594
      objectReference: {fileID: 0}
    - target: {fileID: 9107626796872938703, guid: d0a16684b100c86489982faf1e4b7726, type: 3}
      propertyPath: m_LocalEulerAnglesHint.x
      value: 41.89945
      objectReference: {fileID: 0}
    - target: {fileID: 9107626796872938703, guid: d0a16684b100c86489982faf1e4b7726, type: 3}
      propertyPath: m_LocalEulerAnglesHint.y
      value: 2.557456
      objectReference: {fileID: 0}
    - target: {fileID: 9107626796872938703, guid: d0a16684b100c86489982faf1e4b7726, type: 3}
      propertyPath: m_LocalEulerAnglesHint.z
      value: 1.003274
      objectReference: {fileID: 0}
    m_RemovedComponents: []
  m_SourcePrefab: {fileID: 100100000, guid: d0a16684b100c86489982faf1e4b7726, type: 3}
--- !u!4 &1176450044776090038 stripped
Transform:
  m_CorrespondingSourceObject: {fileID: 3282838088177320332, guid: d0a16684b100c86489982faf1e4b7726, type: 3}
  m_PrefabInstance: {fileID: 4457838830437894202}
  m_PrefabAsset: {fileID: 0}
--- !u!95 &9140500559274157260 stripped
Animator:
  m_CorrespondingSourceObject: {fileID: 4829257485547875574, guid: d0a16684b100c86489982faf1e4b7726, type: 3}
  m_PrefabInstance: {fileID: 4457838830437894202}
  m_PrefabAsset: {fileID: 0}
--- !u!4 &461060007828508373 stripped
Transform:
  m_CorrespondingSourceObject: {fileID: 4304156388477650671, guid: d0a16684b100c86489982faf1e4b7726, type: 3}
  m_PrefabInstance: {fileID: 4457838830437894202}
  m_PrefabAsset: {fileID: 0}
