%YAML 1.1
%TAG !u! tag:unity3d.com,2011:
--- !u!114 &11400000
MonoBehaviour:
  m_ObjectHideFlags: 0
  m_CorrespondingSourceObject: {fileID: 0}
  m_PrefabInstance: {fileID: 0}
  m_PrefabAsset: {fileID: 0}
  m_GameObject: {fileID: 0}
  m_Enabled: 1
  m_EditorHideFlags: 0
  m_Script: {fileID: 11500000, guid: 7cbe30c2c951e834590e622929c116c5, type: 3}
  m_Name: Axe 1
  m_EditorClassIdentifier: 
  equipmentSlot: 1
  itemId: 7
  isShowOnStore: 1
  thumbnail: {fileID: 0}
  prefab: {fileID: 3904890378775312067, guid: b08bba29330496a4985bfc06ab765336, type: 3}
  itemName: "R\xECu 1"
  description: 
  price: 150
  materialAvaibleItem:
  - materialId: 0
    icon: {fileID: 0}
  - materialId: 1
    icon: {fileID: 0}
  - materialId: 2
    icon: {fileID: 0}
  - materialId: 3
    icon: {fileID: 0}
  weaponBullet: {fileID: 0}
  itemSkins: []
