%YAML 1.1
%TAG !u! tag:unity3d.com,2011:
--- !u!114 &11400000
MonoBehaviour:
  m_ObjectHideFlags: 0
  m_CorrespondingSourceObject: {fileID: 0}
  m_PrefabInstance: {fileID: 0}
  m_PrefabAsset: {fileID: 0}
  m_GameObject: {fileID: 0}
  m_Enabled: 1
  m_EditorHideFlags: 0
  m_Script: {fileID: 11500000, guid: 7cbe30c2c951e834590e622929c116c5, type: 3}
  m_Name: Candy 3
  m_EditorClassIdentifier: 
  equipmentSlot: 1
  itemId: 11
  isShowOnStore: 1
  thumbnail: {fileID: 0}
  price: 854
  prefab: {fileID: 6590208014869686507, guid: 223eec7a7b9f99648a0e24e216348934, type: 3}
  itemName: "C\xE2y k\u1EB9o 3"
  description: 
  materialAvaibleItem:
  - materialId: 0
    icon: {fileID: 0}
  - materialId: 1
    icon: {fileID: 0}
  - materialId: 2
    icon: {fileID: 0}
  - materialId: 3
    icon: {fileID: 0}
  weaponBullet: {fileID: 0}
  itemSkins: []
