%YAML 1.1
%TAG !u! tag:unity3d.com,2011:
--- !u!114 &11400000
MonoBehaviour:
  m_ObjectHideFlags: 0
  m_CorrespondingSourceObject: {fileID: 0}
  m_PrefabInstance: {fileID: 0}
  m_PrefabAsset: {fileID: 0}
  m_GameObject: {fileID: 0}
  m_Enabled: 1
  m_EditorHideFlags: 0
  m_Script: {fileID: 11500000, guid: 7cbe30c2c951e834590e622929c116c5, type: 3}
  m_Name: Thunder Z
  m_EditorClassIdentifier: 
  equipmentSlot: 1
  itemId: 13
  isShowOnStore: 1
  thumbnail: {fileID: 0}
  price: 5633
  prefab: {fileID: 8570058431476652751, guid: ea6f25af91b37de4e9651959202b0b58, type: 3}
  itemName: "Tia ch\u1EDBp"
  description: 
  materialAvaibleItem:
  - materialId: 0
    icon: {fileID: 0}
  - materialId: 1
    icon: {fileID: 0}
  - materialId: 2
    icon: {fileID: 0}
  - materialId: 3
    icon: {fileID: 0}
  weaponBullet: {fileID: 0}
  itemSkins: []
