%YAML 1.1
%TAG !u! tag:unity3d.com,2011:
--- !u!114 &11400000
MonoBehaviour:
  m_ObjectHideFlags: 0
  m_CorrespondingSourceObject: {fileID: 0}
  m_PrefabInstance: {fileID: 0}
  m_PrefabAsset: {fileID: 0}
  m_GameObject: {fileID: 0}
  m_Enabled: 1
  m_EditorHideFlags: 0
  m_Script: {fileID: 11500000, guid: 85f58ebe25bb78f42814bb0c16292572, type: 3}
  m_Name: Wing Blade Deadpool
  m_EditorClassIdentifier: 
  equipmentSlot: 3
  itemId: 20
  isShowOnStore: 1
  thumbnail: {fileID: 21300000, guid: afabcae20a132254ea24c209a9f900bd, type: 3}
  price: 11111
  prefab: {fileID: 7388761898327137330, guid: 84886ee8aee80e24da222b567fa405e5, type: 3}
