%YAML 1.1
%TAG !u! tag:unity3d.com,2011:
--- !u!114 &11400000
MonoBehaviour:
  m_ObjectHideFlags: 0
  m_CorrespondingSourceObject: {fileID: 0}
  m_PrefabInstance: {fileID: 0}
  m_PrefabAsset: {fileID: 0}
  m_GameObject: {fileID: 0}
  m_Enabled: 1
  m_EditorHideFlags: 0
  m_Script: {fileID: 11500000, guid: 85f58ebe25bb78f42814bb0c16292572, type: 3}
  m_Name: Wing Devil
  m_EditorClassIdentifier: 
  equipmentSlot: 3
  itemId: 21
  isShowOnStore: 1
  thumbnail: {fileID: 21300000, guid: e4b2426b0fb8931469568b61ceb37b95, type: 3}
  price: 4444
  prefab: {fileID: 3415727705158149881, guid: e1a8adcc6b4f06d40849b2d86e88592f, type: 3}
